%YAML 1.1
%TAG !u! tag:unity3d.com,2011:
--- !u!78 &1
TagManager:
  serializedVersion: 2
  tags: []
  layers:
  - Default
  - TransparentFX
  - Ignore Raycast
  - 
  - Water
  - UI
  - Target
  - 
  - 
  - 
  - 
  - 
  - 
  - 
  - 
  - 
  - 
  - 
  - 
  - 
  - 
  - 
  - 
  - 
  - 
  - 
  - 
  - 
  - 
  - 
  - 
  - 
  m_SortingLayers:
  - name: BG
    uniqueID: 1045365803
    locked: 0
  - name: Object
    uniqueID: 225006731
    locked: 0
  - name: Outline
    uniqueID: 3743053663
    locked: 0
  - name: Default
    uniqueID: 0
    locked: 0
  - name: Hand
    uniqueID: 4289519363
    locked: 0
  - name: VFX
    uniqueID: 1939999975
    locked: 0
